{
  "project_info": {
    "project_number": "437507892084",
    "project_id": "mystore-e2504",
    "storage_bucket": "mystore-e2504.appspot.com"
  },
  "client": [
    {
      "client_info": {
        "mobilesdk_app_id": "1:437507892084:android:d203b69a9ac5f719054221",
        "android_client_info": {
          "package_name": "com.anfegara.mystore"
        }
      },
      "oauth_client": [
        {
          "client_id": "437507892084-n84v8sk9975ejmnni5k982tpkhtr2dmv.apps.googleusercontent.com",
          "client_type": 1,
          "android_info": {
            "package_name": "com.anfegara.mystore",
            "certificate_hash": "a5de39c63d75536ba4876fb8a523f53027d397b8"
          }
        },
        {
          "client_id": "437507892084-r6uv0bekhtcmre9mosav375dplsatr25.apps.googleusercontent.com",
          "client_type": 3
        }
      ],
      "api_key": [
        {
          "current_key": "AIzaSyD6f95rgvVm5mxnpqIUNsndfxDDKQWiY8w"
        }
      ],
      "services": {
        "appinvite_service": {
          "other_platform_oauth_client": [
            {
              "client_id": "437507892084-r6uv0bekhtcmre9mosav375dplsatr25.apps.googleusercontent.com",
              "client_type": 3
            }
          ]
        }
      }
    }
  ],
  "configuration_version": "1"
}